[{"dates": {"maximum": "2026-06-10", "minimum": "2026-04-29"}, "page": 326, "results": [], "total_pages": 318, "total_results": 6354}, {"dates": {"maximum": "2026-06-10", "minimum": "2026-04-29"}, "page": 327, "results": [], "total_pages": 318, "total_results": 6354}, {"dates": {"maximum": "2026-06-10", "minimum": "2026-04-29"}, "page": 328, "results": [], "total_pages": 318, "total_results": 6354}, {"dates": {"maximum": "2026-06-10", "minimum": "2026-04-29"}, "page": 329, "results": [], "total_pages": 318, "total_results": 6354}, {"dates": {"maximum": "2026-06-10", "minimum": "2026-04-29"}, "page": 330, "results": [], "total_pages": 318, "total_results": 6354}, {"dates": {"maximum": "2026-06-10", "minimum": "2026-04-29"}, "page": 331, "results": [], "total_pages": 318, "total_results": 6354}, {"dates": {"maximum": "2026-06-10", "minimum": "2026-04-29"}, "page": 332, "results": [], "total_pages": 318, "total_results": 6354}, {"dates": {"maximum": "2026-06-10", "minimum": "2026-04-29"}, "page": 333, "results": [], "total_pages": 318, "total_results": 6354}, {"dates": {"maximum": "2026-06-10", "minimum": "2026-04-29"}, "page": 334, "results": [], "total_pages": 318, "total_results": 6354}, {"dates": {"maximum": "2026-06-10", "minimum": "2026-04-29"}, "page": 335, "results": [], "total_pages": 318, "total_results": 6354}, {"dates": {"maximum": "2026-06-10", "minimum": "2026-04-29"}, "page": 336, "results": [], "total_pages": 318, "total_results": 6354}, {"dates": {"maximum": "2026-06-10", "minimum": "2026-04-29"}, "page": 337, "results": [], "total_pages": 318, "total_results": 6354}, {"dates": {"maximum": "2026-06-10", "minimum": "2026-04-29"}, "page": 338, "results": [], "total_pages": 318, "total_results": 6354}, {"dates": {"maximum": "2026-06-10", "minimum": "2026-04-29"}, "page": 339, "results": [], "total_pages": 318, "total_results": 6354}, {"dates": {"maximum": "2026-06-10", "minimum": "2026-04-29"}, "page": 340, "results": [], "total_pages": 318, "total_results": 6354}, {"dates": {"maximum": "2026-06-10", "minimum": "2026-04-29"}, "page": 341, "results": [], "total_pages": 318, "total_results": 6354}, {"dates": {"maximum": "2026-06-10", "minimum": "2026-04-29"}, "page": 342, "results": [], "total_pages": 318, "total_results": 6354}, {"dates": {"maximum": "2026-06-10", "minimum": "2026-04-29"}, "page": 343, "results": [], "total_pages": 318, "total_results": 6354}, {"dates": {"maximum": "2026-06-10", "minimum": "2026-04-29"}, "page": 344, "results": [], "total_pages": 318, "total_results": 6354}, {"dates": {"maximum": "2026-06-10", "minimum": "2026-04-29"}, "page": 345, "results": [], "total_pages": 318, "total_results": 6354}, {"dates": {"maximum": "2026-06-10", "minimum": "2026-04-29"}, "page": 346, "results": [], "total_pages": 318, "total_results": 6354}, {"dates": {"maximum": "2026-06-10", "minimum": "2026-04-29"}, "page": 347, "results": [], "total_pages": 318, "total_results": 6354}, {"dates": {"maximum": "2026-06-10", "minimum": "2026-04-29"}, "page": 348, "results": [], "total_pages": 318, "total_results": 6354}, {"dates": {"maximum": "2026-06-10", "minimum": "2026-04-29"}, "page": 349, "results": [], "total_pages": 318, "total_results": 6354}, {"dates": {"maximum": "2026-06-10", "minimum": "2026-04-29"}, "page": 350, "results": [], "total_pages": 318, "total_results": 6354}]