[{"dates": {"maximum": "2026-06-10", "minimum": "2026-04-29"}, "page": 476, "results": [], "total_pages": 318, "total_results": 6355}, {"dates": {"maximum": "2026-06-10", "minimum": "2026-04-29"}, "page": 477, "results": [], "total_pages": 318, "total_results": 6355}, {"dates": {"maximum": "2026-06-10", "minimum": "2026-04-29"}, "page": 478, "results": [], "total_pages": 318, "total_results": 6355}, {"dates": {"maximum": "2026-06-10", "minimum": "2026-04-29"}, "page": 479, "results": [], "total_pages": 318, "total_results": 6355}, {"dates": {"maximum": "2026-06-10", "minimum": "2026-04-29"}, "page": 480, "results": [], "total_pages": 318, "total_results": 6355}, {"dates": {"maximum": "2026-06-10", "minimum": "2026-04-29"}, "page": 481, "results": [], "total_pages": 318, "total_results": 6355}, {"dates": {"maximum": "2026-06-10", "minimum": "2026-04-29"}, "page": 482, "results": [], "total_pages": 318, "total_results": 6355}, {"dates": {"maximum": "2026-06-10", "minimum": "2026-04-29"}, "page": 483, "results": [], "total_pages": 318, "total_results": 6355}, {"dates": {"maximum": "2026-06-10", "minimum": "2026-04-29"}, "page": 484, "results": [], "total_pages": 318, "total_results": 6355}, {"dates": {"maximum": "2026-06-10", "minimum": "2026-04-29"}, "page": 485, "results": [], "total_pages": 318, "total_results": 6355}, {"dates": {"maximum": "2026-06-10", "minimum": "2026-04-29"}, "page": 486, "results": [], "total_pages": 318, "total_results": 6355}, {"dates": {"maximum": "2026-06-10", "minimum": "2026-04-29"}, "page": 487, "results": [], "total_pages": 318, "total_results": 6355}, {"dates": {"maximum": "2026-06-10", "minimum": "2026-04-29"}, "page": 488, "results": [], "total_pages": 318, "total_results": 6355}, {"dates": {"maximum": "2026-06-10", "minimum": "2026-04-29"}, "page": 489, "results": [], "total_pages": 318, "total_results": 6355}, {"dates": {"maximum": "2026-06-10", "minimum": "2026-04-29"}, "page": 490, "results": [], "total_pages": 318, "total_results": 6355}, {"dates": {"maximum": "2026-06-10", "minimum": "2026-04-29"}, "page": 491, "results": [], "total_pages": 318, "total_results": 6355}, {"dates": {"maximum": "2026-06-10", "minimum": "2026-04-29"}, "page": 492, "results": [], "total_pages": 318, "total_results": 6355}, {"dates": {"maximum": "2026-06-10", "minimum": "2026-04-29"}, "page": 493, "results": [], "total_pages": 318, "total_results": 6355}, {"dates": {"maximum": "2026-06-10", "minimum": "2026-04-29"}, "page": 494, "results": [], "total_pages": 318, "total_results": 6355}, {"dates": {"maximum": "2026-06-10", "minimum": "2026-04-29"}, "page": 495, "results": [], "total_pages": 318, "total_results": 6355}, {"dates": {"maximum": "2026-06-10", "minimum": "2026-04-29"}, "page": 496, "results": [], "total_pages": 318, "total_results": 6355}, {"dates": {"maximum": "2026-06-10", "minimum": "2026-04-29"}, "page": 497, "results": [], "total_pages": 318, "total_results": 6355}, {"dates": {"maximum": "2026-06-10", "minimum": "2026-04-29"}, "page": 498, "results": [], "total_pages": 318, "total_results": 6355}, {"dates": {"maximum": "2026-06-10", "minimum": "2026-04-29"}, "page": 499, "results": [], "total_pages": 318, "total_results": 6355}, {"dates": {"maximum": "2026-06-10", "minimum": "2026-04-29"}, "page": 500, "results": [], "total_pages": 318, "total_results": 6355}]