[{"dates": {"maximum": "2026-06-10", "minimum": "2026-04-29"}, "page": 451, "results": [], "total_pages": 318, "total_results": 6355}, {"dates": {"maximum": "2026-06-10", "minimum": "2026-04-29"}, "page": 452, "results": [], "total_pages": 318, "total_results": 6355}, {"dates": {"maximum": "2026-06-10", "minimum": "2026-04-29"}, "page": 453, "results": [], "total_pages": 318, "total_results": 6355}, {"dates": {"maximum": "2026-06-10", "minimum": "2026-04-29"}, "page": 454, "results": [], "total_pages": 318, "total_results": 6355}, {"dates": {"maximum": "2026-06-10", "minimum": "2026-04-29"}, "page": 455, "results": [], "total_pages": 318, "total_results": 6355}, {"dates": {"maximum": "2026-06-10", "minimum": "2026-04-29"}, "page": 456, "results": [], "total_pages": 318, "total_results": 6355}, {"dates": {"maximum": "2026-06-10", "minimum": "2026-04-29"}, "page": 457, "results": [], "total_pages": 318, "total_results": 6355}, {"dates": {"maximum": "2026-06-10", "minimum": "2026-04-29"}, "page": 458, "results": [], "total_pages": 318, "total_results": 6355}, {"dates": {"maximum": "2026-06-10", "minimum": "2026-04-29"}, "page": 459, "results": [], "total_pages": 318, "total_results": 6355}, {"dates": {"maximum": "2026-06-10", "minimum": "2026-04-29"}, "page": 460, "results": [], "total_pages": 318, "total_results": 6355}, {"dates": {"maximum": "2026-06-10", "minimum": "2026-04-29"}, "page": 461, "results": [], "total_pages": 318, "total_results": 6355}, {"dates": {"maximum": "2026-06-10", "minimum": "2026-04-29"}, "page": 462, "results": [], "total_pages": 318, "total_results": 6355}, {"dates": {"maximum": "2026-06-10", "minimum": "2026-04-29"}, "page": 463, "results": [], "total_pages": 318, "total_results": 6355}, {"dates": {"maximum": "2026-06-10", "minimum": "2026-04-29"}, "page": 464, "results": [], "total_pages": 318, "total_results": 6355}, {"dates": {"maximum": "2026-06-10", "minimum": "2026-04-29"}, "page": 465, "results": [], "total_pages": 318, "total_results": 6355}, {"dates": {"maximum": "2026-06-10", "minimum": "2026-04-29"}, "page": 466, "results": [], "total_pages": 318, "total_results": 6355}, {"dates": {"maximum": "2026-06-10", "minimum": "2026-04-29"}, "page": 467, "results": [], "total_pages": 318, "total_results": 6355}, {"dates": {"maximum": "2026-06-10", "minimum": "2026-04-29"}, "page": 468, "results": [], "total_pages": 318, "total_results": 6355}, {"dates": {"maximum": "2026-06-10", "minimum": "2026-04-29"}, "page": 469, "results": [], "total_pages": 318, "total_results": 6355}, {"dates": {"maximum": "2026-06-10", "minimum": "2026-04-29"}, "page": 470, "results": [], "total_pages": 318, "total_results": 6355}, {"dates": {"maximum": "2026-06-10", "minimum": "2026-04-29"}, "page": 471, "results": [], "total_pages": 318, "total_results": 6355}, {"dates": {"maximum": "2026-06-10", "minimum": "2026-04-29"}, "page": 472, "results": [], "total_pages": 318, "total_results": 6355}, {"dates": {"maximum": "2026-06-10", "minimum": "2026-04-29"}, "page": 473, "results": [], "total_pages": 318, "total_results": 6355}, {"dates": {"maximum": "2026-06-10", "minimum": "2026-04-29"}, "page": 474, "results": [], "total_pages": 318, "total_results": 6355}, {"dates": {"maximum": "2026-06-10", "minimum": "2026-04-29"}, "page": 475, "results": [], "total_pages": 318, "total_results": 6355}]