[{"dates": {"maximum": "2026-06-10", "minimum": "2026-04-29"}, "page": 376, "results": [], "total_pages": 318, "total_results": 6354}, {"dates": {"maximum": "2026-06-10", "minimum": "2026-04-29"}, "page": 377, "results": [], "total_pages": 318, "total_results": 6354}, {"dates": {"maximum": "2026-06-10", "minimum": "2026-04-29"}, "page": 378, "results": [], "total_pages": 318, "total_results": 6354}, {"dates": {"maximum": "2026-06-10", "minimum": "2026-04-29"}, "page": 379, "results": [], "total_pages": 318, "total_results": 6354}, {"dates": {"maximum": "2026-06-10", "minimum": "2026-04-29"}, "page": 380, "results": [], "total_pages": 318, "total_results": 6354}, {"dates": {"maximum": "2026-06-10", "minimum": "2026-04-29"}, "page": 381, "results": [], "total_pages": 318, "total_results": 6354}, {"dates": {"maximum": "2026-06-10", "minimum": "2026-04-29"}, "page": 382, "results": [], "total_pages": 318, "total_results": 6354}, {"dates": {"maximum": "2026-06-10", "minimum": "2026-04-29"}, "page": 383, "results": [], "total_pages": 318, "total_results": 6354}, {"dates": {"maximum": "2026-06-10", "minimum": "2026-04-29"}, "page": 384, "results": [], "total_pages": 318, "total_results": 6354}, {"dates": {"maximum": "2026-06-10", "minimum": "2026-04-29"}, "page": 385, "results": [], "total_pages": 318, "total_results": 6354}, {"dates": {"maximum": "2026-06-10", "minimum": "2026-04-29"}, "page": 386, "results": [], "total_pages": 318, "total_results": 6354}, {"dates": {"maximum": "2026-06-10", "minimum": "2026-04-29"}, "page": 387, "results": [], "total_pages": 318, "total_results": 6354}, {"dates": {"maximum": "2026-06-10", "minimum": "2026-04-29"}, "page": 388, "results": [], "total_pages": 318, "total_results": 6354}, {"dates": {"maximum": "2026-06-10", "minimum": "2026-04-29"}, "page": 389, "results": [], "total_pages": 318, "total_results": 6354}, {"dates": {"maximum": "2026-06-10", "minimum": "2026-04-29"}, "page": 390, "results": [], "total_pages": 318, "total_results": 6354}, {"dates": {"maximum": "2026-06-10", "minimum": "2026-04-29"}, "page": 391, "results": [], "total_pages": 318, "total_results": 6354}, {"dates": {"maximum": "2026-06-10", "minimum": "2026-04-29"}, "page": 392, "results": [], "total_pages": 318, "total_results": 6354}, {"dates": {"maximum": "2026-06-10", "minimum": "2026-04-29"}, "page": 393, "results": [], "total_pages": 318, "total_results": 6354}, {"dates": {"maximum": "2026-06-10", "minimum": "2026-04-29"}, "page": 394, "results": [], "total_pages": 318, "total_results": 6354}, {"dates": {"maximum": "2026-06-10", "minimum": "2026-04-29"}, "page": 395, "results": [], "total_pages": 318, "total_results": 6354}, {"dates": {"maximum": "2026-06-10", "minimum": "2026-04-29"}, "page": 396, "results": [], "total_pages": 318, "total_results": 6354}, {"dates": {"maximum": "2026-06-10", "minimum": "2026-04-29"}, "page": 397, "results": [], "total_pages": 318, "total_results": 6354}, {"dates": {"maximum": "2026-06-10", "minimum": "2026-04-29"}, "page": 398, "results": [], "total_pages": 318, "total_results": 6354}, {"dates": {"maximum": "2026-06-10", "minimum": "2026-04-29"}, "page": 399, "results": [], "total_pages": 318, "total_results": 6354}, {"dates": {"maximum": "2026-06-10", "minimum": "2026-04-29"}, "page": 400, "results": [], "total_pages": 318, "total_results": 6354}]