[{"dates": {"maximum": "2026-06-10", "minimum": "2026-04-29"}, "page": 426, "results": [], "total_pages": 318, "total_results": 6355}, {"dates": {"maximum": "2026-06-10", "minimum": "2026-04-29"}, "page": 427, "results": [], "total_pages": 318, "total_results": 6355}, {"dates": {"maximum": "2026-06-10", "minimum": "2026-04-29"}, "page": 428, "results": [], "total_pages": 318, "total_results": 6355}, {"dates": {"maximum": "2026-06-10", "minimum": "2026-04-29"}, "page": 429, "results": [], "total_pages": 318, "total_results": 6355}, {"dates": {"maximum": "2026-06-10", "minimum": "2026-04-29"}, "page": 430, "results": [], "total_pages": 318, "total_results": 6355}, {"dates": {"maximum": "2026-06-10", "minimum": "2026-04-29"}, "page": 431, "results": [], "total_pages": 318, "total_results": 6355}, {"dates": {"maximum": "2026-06-10", "minimum": "2026-04-29"}, "page": 432, "results": [], "total_pages": 318, "total_results": 6355}, {"dates": {"maximum": "2026-06-10", "minimum": "2026-04-29"}, "page": 433, "results": [], "total_pages": 318, "total_results": 6355}, {"dates": {"maximum": "2026-06-10", "minimum": "2026-04-29"}, "page": 434, "results": [], "total_pages": 318, "total_results": 6355}, {"dates": {"maximum": "2026-06-10", "minimum": "2026-04-29"}, "page": 435, "results": [], "total_pages": 318, "total_results": 6355}, {"dates": {"maximum": "2026-06-10", "minimum": "2026-04-29"}, "page": 436, "results": [], "total_pages": 318, "total_results": 6355}, {"dates": {"maximum": "2026-06-10", "minimum": "2026-04-29"}, "page": 437, "results": [], "total_pages": 318, "total_results": 6355}, {"dates": {"maximum": "2026-06-10", "minimum": "2026-04-29"}, "page": 438, "results": [], "total_pages": 318, "total_results": 6355}, {"dates": {"maximum": "2026-06-10", "minimum": "2026-04-29"}, "page": 439, "results": [], "total_pages": 318, "total_results": 6355}, {"dates": {"maximum": "2026-06-10", "minimum": "2026-04-29"}, "page": 440, "results": [], "total_pages": 318, "total_results": 6355}, {"dates": {"maximum": "2026-06-10", "minimum": "2026-04-29"}, "page": 441, "results": [], "total_pages": 318, "total_results": 6355}, {"dates": {"maximum": "2026-06-10", "minimum": "2026-04-29"}, "page": 442, "results": [], "total_pages": 318, "total_results": 6355}, {"dates": {"maximum": "2026-06-10", "minimum": "2026-04-29"}, "page": 443, "results": [], "total_pages": 318, "total_results": 6355}, {"dates": {"maximum": "2026-06-10", "minimum": "2026-04-29"}, "page": 444, "results": [], "total_pages": 318, "total_results": 6355}, {"dates": {"maximum": "2026-06-10", "minimum": "2026-04-29"}, "page": 445, "results": [], "total_pages": 318, "total_results": 6355}, {"dates": {"maximum": "2026-06-10", "minimum": "2026-04-29"}, "page": 446, "results": [], "total_pages": 318, "total_results": 6355}, {"dates": {"maximum": "2026-06-10", "minimum": "2026-04-29"}, "page": 447, "results": [], "total_pages": 318, "total_results": 6355}, {"dates": {"maximum": "2026-06-10", "minimum": "2026-04-29"}, "page": 448, "results": [], "total_pages": 318, "total_results": 6355}, {"dates": {"maximum": "2026-06-10", "minimum": "2026-04-29"}, "page": 449, "results": [], "total_pages": 318, "total_results": 6355}, {"dates": {"maximum": "2026-06-10", "minimum": "2026-04-29"}, "page": 450, "results": [], "total_pages": 318, "total_results": 6355}]