[{"dates": {"maximum": "2026-07-01", "minimum": "2026-06-10"}, "page": 276, "results": [], "total_pages": 59, "total_results": 1166}, {"dates": {"maximum": "2026-07-01", "minimum": "2026-06-10"}, "page": 277, "results": [], "total_pages": 59, "total_results": 1166}, {"dates": {"maximum": "2026-07-01", "minimum": "2026-06-10"}, "page": 278, "results": [], "total_pages": 59, "total_results": 1166}, {"dates": {"maximum": "2026-07-01", "minimum": "2026-06-10"}, "page": 279, "results": [], "total_pages": 59, "total_results": 1166}, {"dates": {"maximum": "2026-07-01", "minimum": "2026-06-10"}, "page": 280, "results": [], "total_pages": 59, "total_results": 1166}, {"dates": {"maximum": "2026-07-01", "minimum": "2026-06-10"}, "page": 281, "results": [], "total_pages": 59, "total_results": 1166}, {"dates": {"maximum": "2026-07-01", "minimum": "2026-06-10"}, "page": 282, "results": [], "total_pages": 59, "total_results": 1166}, {"dates": {"maximum": "2026-07-01", "minimum": "2026-06-10"}, "page": 283, "results": [], "total_pages": 59, "total_results": 1166}, {"dates": {"maximum": "2026-07-01", "minimum": "2026-06-10"}, "page": 284, "results": [], "total_pages": 59, "total_results": 1166}, {"dates": {"maximum": "2026-07-01", "minimum": "2026-06-10"}, "page": 285, "results": [], "total_pages": 59, "total_results": 1166}, {"dates": {"maximum": "2026-07-01", "minimum": "2026-06-10"}, "page": 286, "results": [], "total_pages": 59, "total_results": 1166}, {"dates": {"maximum": "2026-07-01", "minimum": "2026-06-10"}, "page": 287, "results": [], "total_pages": 59, "total_results": 1166}, {"dates": {"maximum": "2026-07-01", "minimum": "2026-06-10"}, "page": 288, "results": [], "total_pages": 59, "total_results": 1166}, {"dates": {"maximum": "2026-07-01", "minimum": "2026-06-10"}, "page": 289, "results": [], "total_pages": 59, "total_results": 1166}, {"dates": {"maximum": "2026-07-01", "minimum": "2026-06-10"}, "page": 290, "results": [], "total_pages": 59, "total_results": 1166}, {"dates": {"maximum": "2026-07-01", "minimum": "2026-06-10"}, "page": 291, "results": [], "total_pages": 59, "total_results": 1166}, {"dates": {"maximum": "2026-07-01", "minimum": "2026-06-10"}, "page": 292, "results": [], "total_pages": 59, "total_results": 1166}, {"dates": {"maximum": "2026-07-01", "minimum": "2026-06-10"}, "page": 293, "results": [], "total_pages": 59, "total_results": 1166}, {"dates": {"maximum": "2026-07-01", "minimum": "2026-06-10"}, "page": 294, "results": [], "total_pages": 59, "total_results": 1166}, {"dates": {"maximum": "2026-07-01", "minimum": "2026-06-10"}, "page": 295, "results": [], "total_pages": 59, "total_results": 1166}, {"dates": {"maximum": "2026-07-01", "minimum": "2026-06-10"}, "page": 296, "results": [], "total_pages": 59, "total_results": 1166}, {"dates": {"maximum": "2026-07-01", "minimum": "2026-06-10"}, "page": 297, "results": [], "total_pages": 59, "total_results": 1166}, {"dates": {"maximum": "2026-07-01", "minimum": "2026-06-10"}, "page": 298, "results": [], "total_pages": 59, "total_results": 1166}, {"dates": {"maximum": "2026-07-01", "minimum": "2026-06-10"}, "page": 299, "results": [], "total_pages": 59, "total_results": 1166}, {"dates": {"maximum": "2026-07-01", "minimum": "2026-06-10"}, "page": 300, "results": [], "total_pages": 59, "total_results": 1166}]