[{"dates": {"maximum": "2026-07-01", "minimum": "2026-06-10"}, "page": 76, "results": [], "total_pages": 59, "total_results": 1166}, {"dates": {"maximum": "2026-07-01", "minimum": "2026-06-10"}, "page": 77, "results": [], "total_pages": 59, "total_results": 1166}, {"dates": {"maximum": "2026-07-01", "minimum": "2026-06-10"}, "page": 78, "results": [], "total_pages": 59, "total_results": 1166}, {"dates": {"maximum": "2026-07-01", "minimum": "2026-06-10"}, "page": 79, "results": [], "total_pages": 59, "total_results": 1166}, {"dates": {"maximum": "2026-07-01", "minimum": "2026-06-10"}, "page": 80, "results": [], "total_pages": 59, "total_results": 1166}, {"dates": {"maximum": "2026-07-01", "minimum": "2026-06-10"}, "page": 81, "results": [], "total_pages": 59, "total_results": 1166}, {"dates": {"maximum": "2026-07-01", "minimum": "2026-06-10"}, "page": 82, "results": [], "total_pages": 59, "total_results": 1166}, {"dates": {"maximum": "2026-07-01", "minimum": "2026-06-10"}, "page": 83, "results": [], "total_pages": 59, "total_results": 1166}, {"dates": {"maximum": "2026-07-01", "minimum": "2026-06-10"}, "page": 84, "results": [], "total_pages": 59, "total_results": 1166}, {"dates": {"maximum": "2026-07-01", "minimum": "2026-06-10"}, "page": 85, "results": [], "total_pages": 59, "total_results": 1166}, {"dates": {"maximum": "2026-07-01", "minimum": "2026-06-10"}, "page": 86, "results": [], "total_pages": 59, "total_results": 1166}, {"dates": {"maximum": "2026-07-01", "minimum": "2026-06-10"}, "page": 87, "results": [], "total_pages": 59, "total_results": 1166}, {"dates": {"maximum": "2026-07-01", "minimum": "2026-06-10"}, "page": 88, "results": [], "total_pages": 59, "total_results": 1166}, {"dates": {"maximum": "2026-07-01", "minimum": "2026-06-10"}, "page": 89, "results": [], "total_pages": 59, "total_results": 1166}, {"dates": {"maximum": "2026-07-01", "minimum": "2026-06-10"}, "page": 90, "results": [], "total_pages": 59, "total_results": 1166}, {"dates": {"maximum": "2026-07-01", "minimum": "2026-06-10"}, "page": 91, "results": [], "total_pages": 59, "total_results": 1166}, {"dates": {"maximum": "2026-07-01", "minimum": "2026-06-10"}, "page": 92, "results": [], "total_pages": 59, "total_results": 1166}, {"dates": {"maximum": "2026-07-01", "minimum": "2026-06-10"}, "page": 93, "results": [], "total_pages": 59, "total_results": 1166}, {"dates": {"maximum": "2026-07-01", "minimum": "2026-06-10"}, "page": 94, "results": [], "total_pages": 59, "total_results": 1166}, {"dates": {"maximum": "2026-07-01", "minimum": "2026-06-10"}, "page": 95, "results": [], "total_pages": 59, "total_results": 1166}, {"dates": {"maximum": "2026-07-01", "minimum": "2026-06-10"}, "page": 96, "results": [], "total_pages": 59, "total_results": 1166}, {"dates": {"maximum": "2026-07-01", "minimum": "2026-06-10"}, "page": 97, "results": [], "total_pages": 59, "total_results": 1166}, {"dates": {"maximum": "2026-07-01", "minimum": "2026-06-10"}, "page": 98, "results": [], "total_pages": 59, "total_results": 1166}, {"dates": {"maximum": "2026-07-01", "minimum": "2026-06-10"}, "page": 99, "results": [], "total_pages": 59, "total_results": 1166}, {"dates": {"maximum": "2026-07-01", "minimum": "2026-06-10"}, "page": 100, "results": [], "total_pages": 59, "total_results": 1166}]