[{"dates": {"maximum": "2026-07-01", "minimum": "2026-06-10"}, "page": 251, "results": [], "total_pages": 59, "total_results": 1166}, {"dates": {"maximum": "2026-07-01", "minimum": "2026-06-10"}, "page": 252, "results": [], "total_pages": 59, "total_results": 1166}, {"dates": {"maximum": "2026-07-01", "minimum": "2026-06-10"}, "page": 253, "results": [], "total_pages": 59, "total_results": 1166}, {"dates": {"maximum": "2026-07-01", "minimum": "2026-06-10"}, "page": 254, "results": [], "total_pages": 59, "total_results": 1166}, {"dates": {"maximum": "2026-07-01", "minimum": "2026-06-10"}, "page": 255, "results": [], "total_pages": 59, "total_results": 1166}, {"dates": {"maximum": "2026-07-01", "minimum": "2026-06-10"}, "page": 256, "results": [], "total_pages": 59, "total_results": 1166}, {"dates": {"maximum": "2026-07-01", "minimum": "2026-06-10"}, "page": 257, "results": [], "total_pages": 59, "total_results": 1166}, {"dates": {"maximum": "2026-07-01", "minimum": "2026-06-10"}, "page": 258, "results": [], "total_pages": 59, "total_results": 1166}, {"dates": {"maximum": "2026-07-01", "minimum": "2026-06-10"}, "page": 259, "results": [], "total_pages": 59, "total_results": 1166}, {"dates": {"maximum": "2026-07-01", "minimum": "2026-06-10"}, "page": 260, "results": [], "total_pages": 59, "total_results": 1166}, {"dates": {"maximum": "2026-07-01", "minimum": "2026-06-10"}, "page": 261, "results": [], "total_pages": 59, "total_results": 1166}, {"dates": {"maximum": "2026-07-01", "minimum": "2026-06-10"}, "page": 262, "results": [], "total_pages": 59, "total_results": 1166}, {"dates": {"maximum": "2026-07-01", "minimum": "2026-06-10"}, "page": 263, "results": [], "total_pages": 59, "total_results": 1166}, {"dates": {"maximum": "2026-07-01", "minimum": "2026-06-10"}, "page": 264, "results": [], "total_pages": 59, "total_results": 1166}, {"dates": {"maximum": "2026-07-01", "minimum": "2026-06-10"}, "page": 265, "results": [], "total_pages": 59, "total_results": 1166}, {"dates": {"maximum": "2026-07-01", "minimum": "2026-06-10"}, "page": 266, "results": [], "total_pages": 59, "total_results": 1166}, {"dates": {"maximum": "2026-07-01", "minimum": "2026-06-10"}, "page": 267, "results": [], "total_pages": 59, "total_results": 1166}, {"dates": {"maximum": "2026-07-01", "minimum": "2026-06-10"}, "page": 268, "results": [], "total_pages": 59, "total_results": 1166}, {"dates": {"maximum": "2026-07-01", "minimum": "2026-06-10"}, "page": 269, "results": [], "total_pages": 59, "total_results": 1166}, {"dates": {"maximum": "2026-07-01", "minimum": "2026-06-10"}, "page": 270, "results": [], "total_pages": 59, "total_results": 1166}, {"dates": {"maximum": "2026-07-01", "minimum": "2026-06-10"}, "page": 271, "results": [], "total_pages": 59, "total_results": 1166}, {"dates": {"maximum": "2026-07-01", "minimum": "2026-06-10"}, "page": 272, "results": [], "total_pages": 59, "total_results": 1166}, {"dates": {"maximum": "2026-07-01", "minimum": "2026-06-10"}, "page": 273, "results": [], "total_pages": 59, "total_results": 1166}, {"dates": {"maximum": "2026-07-01", "minimum": "2026-06-10"}, "page": 274, "results": [], "total_pages": 59, "total_results": 1166}, {"dates": {"maximum": "2026-07-01", "minimum": "2026-06-10"}, "page": 275, "results": [], "total_pages": 59, "total_results": 1166}]