[{"dates": {"maximum": "2026-07-01", "minimum": "2026-06-10"}, "page": 176, "results": [], "total_pages": 59, "total_results": 1166}, {"dates": {"maximum": "2026-07-01", "minimum": "2026-06-10"}, "page": 177, "results": [], "total_pages": 59, "total_results": 1166}, {"dates": {"maximum": "2026-07-01", "minimum": "2026-06-10"}, "page": 178, "results": [], "total_pages": 59, "total_results": 1166}, {"dates": {"maximum": "2026-07-01", "minimum": "2026-06-10"}, "page": 179, "results": [], "total_pages": 59, "total_results": 1166}, {"dates": {"maximum": "2026-07-01", "minimum": "2026-06-10"}, "page": 180, "results": [], "total_pages": 59, "total_results": 1166}, {"dates": {"maximum": "2026-07-01", "minimum": "2026-06-10"}, "page": 181, "results": [], "total_pages": 59, "total_results": 1166}, {"dates": {"maximum": "2026-07-01", "minimum": "2026-06-10"}, "page": 182, "results": [], "total_pages": 59, "total_results": 1166}, {"dates": {"maximum": "2026-07-01", "minimum": "2026-06-10"}, "page": 183, "results": [], "total_pages": 59, "total_results": 1166}, {"dates": {"maximum": "2026-07-01", "minimum": "2026-06-10"}, "page": 184, "results": [], "total_pages": 59, "total_results": 1166}, {"dates": {"maximum": "2026-07-01", "minimum": "2026-06-10"}, "page": 185, "results": [], "total_pages": 59, "total_results": 1166}, {"dates": {"maximum": "2026-07-01", "minimum": "2026-06-10"}, "page": 186, "results": [], "total_pages": 59, "total_results": 1166}, {"dates": {"maximum": "2026-07-01", "minimum": "2026-06-10"}, "page": 187, "results": [], "total_pages": 59, "total_results": 1166}, {"dates": {"maximum": "2026-07-01", "minimum": "2026-06-10"}, "page": 188, "results": [], "total_pages": 59, "total_results": 1166}, {"dates": {"maximum": "2026-07-01", "minimum": "2026-06-10"}, "page": 189, "results": [], "total_pages": 59, "total_results": 1166}, {"dates": {"maximum": "2026-07-01", "minimum": "2026-06-10"}, "page": 190, "results": [], "total_pages": 59, "total_results": 1166}, {"dates": {"maximum": "2026-07-01", "minimum": "2026-06-10"}, "page": 191, "results": [], "total_pages": 59, "total_results": 1166}, {"dates": {"maximum": "2026-07-01", "minimum": "2026-06-10"}, "page": 192, "results": [], "total_pages": 59, "total_results": 1166}, {"dates": {"maximum": "2026-07-01", "minimum": "2026-06-10"}, "page": 193, "results": [], "total_pages": 59, "total_results": 1166}, {"dates": {"maximum": "2026-07-01", "minimum": "2026-06-10"}, "page": 194, "results": [], "total_pages": 59, "total_results": 1166}, {"dates": {"maximum": "2026-07-01", "minimum": "2026-06-10"}, "page": 195, "results": [], "total_pages": 59, "total_results": 1166}, {"dates": {"maximum": "2026-07-01", "minimum": "2026-06-10"}, "page": 196, "results": [], "total_pages": 59, "total_results": 1166}, {"dates": {"maximum": "2026-07-01", "minimum": "2026-06-10"}, "page": 197, "results": [], "total_pages": 59, "total_results": 1166}, {"dates": {"maximum": "2026-07-01", "minimum": "2026-06-10"}, "page": 198, "results": [], "total_pages": 59, "total_results": 1166}, {"dates": {"maximum": "2026-07-01", "minimum": "2026-06-10"}, "page": 199, "results": [], "total_pages": 59, "total_results": 1166}, {"dates": {"maximum": "2026-07-01", "minimum": "2026-06-10"}, "page": 200, "results": [], "total_pages": 59, "total_results": 1166}]