[{"dates": {"maximum": "2026-07-01", "minimum": "2026-06-10"}, "page": 401, "results": [], "total_pages": 59, "total_results": 1166}, {"dates": {"maximum": "2026-07-01", "minimum": "2026-06-10"}, "page": 402, "results": [], "total_pages": 59, "total_results": 1166}, {"dates": {"maximum": "2026-07-01", "minimum": "2026-06-10"}, "page": 403, "results": [], "total_pages": 59, "total_results": 1166}, {"dates": {"maximum": "2026-07-01", "minimum": "2026-06-10"}, "page": 404, "results": [], "total_pages": 59, "total_results": 1166}, {"dates": {"maximum": "2026-07-01", "minimum": "2026-06-10"}, "page": 405, "results": [], "total_pages": 59, "total_results": 1166}, {"dates": {"maximum": "2026-07-01", "minimum": "2026-06-10"}, "page": 406, "results": [], "total_pages": 59, "total_results": 1166}, {"dates": {"maximum": "2026-07-01", "minimum": "2026-06-10"}, "page": 407, "results": [], "total_pages": 59, "total_results": 1166}, {"dates": {"maximum": "2026-07-01", "minimum": "2026-06-10"}, "page": 408, "results": [], "total_pages": 59, "total_results": 1166}, {"dates": {"maximum": "2026-07-01", "minimum": "2026-06-10"}, "page": 409, "results": [], "total_pages": 59, "total_results": 1166}, {"dates": {"maximum": "2026-07-01", "minimum": "2026-06-10"}, "page": 410, "results": [], "total_pages": 59, "total_results": 1166}, {"dates": {"maximum": "2026-07-01", "minimum": "2026-06-10"}, "page": 411, "results": [], "total_pages": 59, "total_results": 1166}, {"dates": {"maximum": "2026-07-01", "minimum": "2026-06-10"}, "page": 412, "results": [], "total_pages": 59, "total_results": 1166}, {"dates": {"maximum": "2026-07-01", "minimum": "2026-06-10"}, "page": 413, "results": [], "total_pages": 59, "total_results": 1166}, {"dates": {"maximum": "2026-07-01", "minimum": "2026-06-10"}, "page": 414, "results": [], "total_pages": 59, "total_results": 1166}, {"dates": {"maximum": "2026-07-01", "minimum": "2026-06-10"}, "page": 415, "results": [], "total_pages": 59, "total_results": 1166}, {"dates": {"maximum": "2026-07-01", "minimum": "2026-06-10"}, "page": 416, "results": [], "total_pages": 59, "total_results": 1166}, {"dates": {"maximum": "2026-07-01", "minimum": "2026-06-10"}, "page": 417, "results": [], "total_pages": 59, "total_results": 1166}, {"dates": {"maximum": "2026-07-01", "minimum": "2026-06-10"}, "page": 418, "results": [], "total_pages": 59, "total_results": 1166}, {"dates": {"maximum": "2026-07-01", "minimum": "2026-06-10"}, "page": 419, "results": [], "total_pages": 59, "total_results": 1166}, {"dates": {"maximum": "2026-07-01", "minimum": "2026-06-10"}, "page": 420, "results": [], "total_pages": 59, "total_results": 1166}, {"dates": {"maximum": "2026-07-01", "minimum": "2026-06-10"}, "page": 421, "results": [], "total_pages": 59, "total_results": 1166}, {"dates": {"maximum": "2026-07-01", "minimum": "2026-06-10"}, "page": 422, "results": [], "total_pages": 59, "total_results": 1166}, {"dates": {"maximum": "2026-07-01", "minimum": "2026-06-10"}, "page": 423, "results": [], "total_pages": 59, "total_results": 1166}, {"dates": {"maximum": "2026-07-01", "minimum": "2026-06-10"}, "page": 424, "results": [], "total_pages": 59, "total_results": 1166}, {"dates": {"maximum": "2026-07-01", "minimum": "2026-06-10"}, "page": 425, "results": [], "total_pages": 59, "total_results": 1166}]